[
  {
    "replacing": "marc",
    "what": "bathroom",
    "week": 12,
    "requested_by": "niclas",
    "when_exactly": "03-28-2023",
    "key": 4235383834797284618
  },
  {
    "replacing": "marc",
    "what": "bathroom",
    "week": 12,
    "requested_by": "niclas",
    "when_exactly": "03-28-2023",
    "key": 512363826803233742
  },
  {
    "replacing": "mikiya",
    "what": "doorway",
    "week": 12,
    "requested_by": "niclas",
    "when_exactly": "03-28-2023",
    "key": 6771654698783255334
  },
  {
    "replacing": "mikiya",
    "what": "Excuse",
    "week": 13,
    "requested_by": "mikiya",
    "when_exactly": "2023-04-05",
    "key": 44382
  },
  {
    "replacing": "mikiya",
    "what": "Excuse",
    "week": 13,
    "requested_by": "mikiya",
    "when_exactly": "2023-04-06",
    "key": 87867
  },
  {
    "replacing": "mikiya",
    "what": "Excuse",
    "week": 13,
    "requested_by": "mikiya",
    "when_exactly": "2023-04-07",
    "key": 52476
  },
  {
    "replacing": "mikiya",
    "what": "Excuse",
    "week": 13,
    "requested_by": "mikiya",
    "when_exactly": "2023-04-07",
    "key": 99587
  },
  {
    "replacing": "mikiya",
    "what": "Excuse",
    "week": 13,
    "requested_by": "mikiya",
    "when_exactly": "2023-04-08",
    "key": 155838
  },
  {
    "replacing": "mikiya",
    "what": "Excuse",
    "week": 13,
    "requested_by": "mikiya",
    "when_exactly": "2023-04-09",
    "key": 12403
  },
  {
    "replacing": "mikiya",
    "what": "Excuse",
    "week": 14,
    "requested_by": "mikiya",
    "when_exactly": "2023-04-12",
    "key": 57689
  },
  {
    "replacing": "niclas",
    "what": "Excuse",
    "week": 14,
    "requested_by": "niclas",
    "when_exactly": "2023-04-12",
    "key": 155610
  },
  {
    "replacing": "mikiya",
    "what": "Excuse",
    "week": 14,
    "requested_by": "mikiya",
    "when_exactly": "2023-04-13",
    "key": 146652
  },
  {
    "replacing": "marc",
    "what": "Excuse",
    "week": 15,
    "requested_by": "marc",
    "when_exactly": "2023-04-19",
    "key": 45365
  },
  {
    "replacing": "marc",
    "what": "Excuse",
    "week": 15,
    "requested_by": "marc",
    "when_exactly": "2023-04-20",
    "key": 57842
  },
  {
    "replacing": "marc",
    "what": "Excuse",
    "week": 15,
    "requested_by": "marc",
    "when_exactly": "2023-04-21",
    "key": 30665
  },
  {
    "replacing": "marc",
    "what": "Excuse",
    "week": 15,
    "requested_by": "marc",
    "when_exactly": "2023-04-21",
    "key": 169109
  },
  {
    "replacing": "marc",
    "what": "Excuse",
    "week": 15,
    "requested_by": "marc",
    "when_exactly": "2023-04-22",
    "key": 12519
  },
  {
    "replacing": "marc",
    "what": "Excuse",
    "week": 15,
    "requested_by": "marc",
    "when_exactly": "2023-04-23",
    "key": 30749
  },
  {
    "replacing": "marc",
    "what": "Excuse",
    "week": 16,
    "requested_by": "marc",
    "when_exactly": "2023-04-26",
    "key": 156601
  },
  {
    "replacing": "mikiya",
    "what": "Excuse",
    "week": 16,
    "requested_by": "mikiya",
    "when_exactly": "2023-04-26",
    "key": 43533
  },
  {
    "replacing": "niclas",
    "what": "Excuse",
    "week": 16,
    "requested_by": "niclas",
    "when_exactly": "2023-04-26",
    "key": 38359
  },
  {
    "replacing": "marc",
    "what": "Excuse",
    "week": 16,
    "requested_by": "marc",
    "when_exactly": "2023-04-27",
    "key": 133194
  },
  {
    "replacing": "mikiya",
    "what": "Excuse",
    "week": 16,
    "requested_by": "mikiya",
    "when_exactly": "2023-04-27",
    "key": 78259
  },
  {
    "replacing": "niclas",
    "what": "Excuse",
    "week": 16,
    "requested_by": "niclas",
    "when_exactly": "2023-04-27",
    "key": 105431
  },
  {
    "replacing": "marc",
    "what": "Excuse",
    "week": 16,
    "requested_by": "marc",
    "when_exactly": "2023-04-28",
    "key": 161753
  },
  {
    "replacing": "mikiya",
    "what": "Excuse",
    "week": 16,
    "requested_by": "mikiya",
    "when_exactly": "2023-04-28",
    "key": 87596
  },
  {
    "replacing": "marc",
    "what": "Excuse",
    "week": 16,
    "requested_by": "marc",
    "when_exactly": "2023-04-28",
    "key": 94683
  },
  {
    "replacing": "mikiya",
    "what": "Excuse",
    "week": 16,
    "requested_by": "mikiya",
    "when_exactly": "2023-04-28",
    "key": 38925
  },
  {
    "replacing": "marc",
    "what": "Excuse",
    "week": 16,
    "requested_by": "marc",
    "when_exactly": "2023-04-29",
    "key": 148728
  },
  {
    "replacing": "mikiya",
    "what": "Excuse",
    "week": 16,
    "requested_by": "mikiya",
    "when_exactly": "2023-04-29",
    "key": 156222
  },
  {
    "replacing": "marc",
    "what": "Excuse",
    "week": 16,
    "requested_by": "marc",
    "when_exactly": "2023-04-29",
    "key": 156318
  },
  {
    "replacing": "mikiya",
    "what": "Excuse",
    "week": 16,
    "requested_by": "mikiya",
    "when_exactly": "2023-04-29",
    "key": 83884
  },
  {
    "replacing": "marc",
    "what": "Excuse",
    "week": 17,
    "requested_by": "marc",
    "when_exactly": "2023-05-03",
    "key": 62154
  },
  {
    "replacing": "mikiya",
    "what": "Excuse",
    "week": 17,
    "requested_by": "mikiya",
    "when_exactly": "2023-05-03",
    "key": 166525
  },
  {
    "replacing": "marc",
    "what": "Excuse",
    "week": 17,
    "requested_by": "marc",
    "when_exactly": "2023-05-04",
    "key": 95032
  },
  {
    "replacing": "mikiya",
    "what": "Excuse",
    "week": 17,
    "requested_by": "mikiya",
    "when_exactly": "2023-05-04",
    "key": 49775
  },
  {
    "replacing": "marc",
    "what": "Excuse",
    "week": 17,
    "requested_by": "marc",
    "when_exactly": "2023-05-04",
    "key": 174278
  },
  {
    "replacing": "mikiya",
    "what": "Excuse",
    "week": 17,
    "requested_by": "mikiya",
    "when_exactly": "2023-05-04",
    "key": 32737
  },
  {
    "replacing": "marc",
    "what": "Excuse",
    "week": 17,
    "requested_by": "marc",
    "when_exactly": "2023-05-05",
    "key": 139037
  },
  {
    "replacing": "mikiya",
    "what": "Excuse",
    "week": 17,
    "requested_by": "mikiya",
    "when_exactly": "2023-05-05",
    "key": 171928
  },
  {
    "replacing": "marc",
    "what": "Excuse",
    "week": 17,
    "requested_by": "marc",
    "when_exactly": "2023-05-06",
    "key": 105012
  },
  {
    "replacing": "mikiya",
    "what": "Excuse",
    "week": 17,
    "requested_by": "mikiya",
    "when_exactly": "2023-05-06",
    "key": 96057
  },
  {
    "replacing": "mikiya",
    "what": "Excuse",
    "week": 17,
    "requested_by": "mikiya",
    "when_exactly": "2023-05-06",
    "key": 86662
  }
]